Mutsa’s Data Analysis Portfolio - Fitting Exercise
…
Model using all predictors:

cat("RMSE:", all_rmse, "\n")

RMSE: 654.5275 

cat("R-squared:", all_r_squared, "\n")

R-squared: 0.4920594 

mavo_predictions

# A tibble: 24 × 7
   .pred     Y  DOSE   AGE SEX      WT    HT
   <dbl> <dbl> <dbl> <int> <fct> <dbl> <dbl>
 1 2015. 3126.  25      41 2      64.3  1.56
 2 1911. 2337.  25      27 1      74.1  1.83
 3 1239. 1762.  25      28 1     104.   1.84
 4 2741. 2772.  37.5    28 1      78.3  1.72
 5 3353. 3004.  50      28 1      83.2  1.74
 6 3466. 3514.  50      32 1      78.9  1.74
 7 2803. 3644.  50      28 1      96.8  1.90
 8 1610. 1108.  25      48 2      79.5  1.62
 9 1663. 2027.  25      20 1      80.5  1.88
10 1244. 2063.  25      40 1     103.   1.88
# ℹ 14 more rows
…
